%YAML 1.1
%TAG !u! tag:unity3d.com,2011:
--- !u!1 &8188665246533083486
GameObject:
  m_ObjectHideFlags: 0
  m_CorrespondingSourceObject: {fileID: 0}
  m_PrefabInstance: {fileID: 0}
  m_PrefabAsset: {fileID: 0}
  serializedVersion: 6
  m_Component:
  - component: {fileID: 7871593377540911658}
  - component: {fileID: 4770546403708322212}
  - component: {fileID: 4569124367907719655}
  m_Layer: 0
  m_Name: Pad_3_4
  m_TagString: Pinchos
  m_Icon: {fileID: 0}
  m_NavMeshLayer: 0
  m_StaticEditorFlags: 0
  m_IsActive: 1
--- !u!4 &7871593377540911658
Transform:
  m_ObjectHideFlags: 0
  m_CorrespondingSourceObject: {fileID: 0}
  m_PrefabInstance: {fileID: 0}
  m_PrefabAsset: {fileID: 0}
  m_GameObject: {fileID: 8188665246533083486}
  m_LocalRotation: {x: 0, y: 0, z: 0, w: 1}
  m_LocalPosition: {x: 2.3231525, y: -1.0604358, z: 0}
  m_LocalScale: {x: 0.85, y: 0.85, z: 0.85}
  m_Children: []
  m_Father: {fileID: 0}
  m_RootOrder: 0
  m_LocalEulerAnglesHint: {x: 0, y: 0, z: 0}
--- !u!212 &4770546403708322212
SpriteRenderer:
  m_ObjectHideFlags: 0
  m_CorrespondingSourceObject: {fileID: 0}
  m_PrefabInstance: {fileID: 0}
  m_PrefabAsset: {fileID: 0}
  m_GameObject: {fileID: 8188665246533083486}
  m_Enabled: 1
  m_CastShadows: 0
  m_ReceiveShadows: 0
  m_DynamicOccludee: 1
  m_MotionVectors: 1
  m_LightProbeUsage: 1
  m_ReflectionProbeUsage: 1
  m_RenderingLayerMask: 1
  m_RendererPriority: 0
  m_Materials:
  - {fileID: 10754, guid: 0000000000000000f000000000000000, type: 0}
  m_StaticBatchInfo:
    firstSubMesh: 0
    subMeshCount: 0
  m_StaticBatchRoot: {fileID: 0}
  m_ProbeAnchor: {fileID: 0}
  m_LightProbeVolumeOverride: {fileID: 0}
  m_ScaleInLightmap: 1
  m_PreserveUVs: 0
  m_IgnoreNormalsForChartDetection: 0
  m_ImportantGI: 0
  m_StitchLightmapSeams: 0
  m_SelectedEditorRenderState: 0
  m_MinimumChartSize: 4
  m_AutoUVMaxDistance: 0.5
  m_AutoUVMaxAngle: 89
  m_LightmapParameters: {fileID: 0}
  m_SortingLayerID: 0
  m_SortingLayer: 0
  m_SortingOrder: 0
  m_Sprite: {fileID: 21300000, guid: 2a4b2fbf25b65974b8432f58b276c513, type: 3}
  m_Color: {r: 1, g: 1, b: 1, a: 1}
  m_FlipX: 0
  m_FlipY: 0
  m_DrawMode: 0
  m_Size: {x: 4.17, y: 2.4}
  m_AdaptiveModeThreshold: 0.5
  m_SpriteTileMode: 0
  m_WasSpriteAssigned: 1
  m_MaskInteraction: 0
  m_SpriteSortPoint: 0
--- !u!60 &4569124367907719655
PolygonCollider2D:
  m_ObjectHideFlags: 0
  m_CorrespondingSourceObject: {fileID: 0}
  m_PrefabInstance: {fileID: 0}
  m_PrefabAsset: {fileID: 0}
  m_GameObject: {fileID: 8188665246533083486}
  m_Enabled: 1
  m_Density: 1
  m_Material: {fileID: 0}
  m_IsTrigger: 0
  m_UsedByEffector: 0
  m_UsedByComposite: 0
  m_Offset: {x: 0, y: 0}
  m_SpriteTilingProperty:
    border: {x: 0, y: 0, z: 0, w: 0}
    pivot: {x: 0.5, y: 0.5}
    oldSize: {x: 4.17, y: 2.4}
    newSize: {x: 4.17, y: 2.4}
    adaptiveTilingThreshold: 0.5
    drawMode: 0
    adaptiveTiling: 0
  m_AutoTiling: 0
  m_Points:
    m_Paths:
    - - {x: 1.895, y: -0.72999996}
      - {x: 1.9749999, y: -0.55}
      - {x: 2.085, y: -0.31}
      - {x: 2.085, y: -0.24}
      - {x: 1.995, y: -0.13}
      - {x: 1.665, y: -0.12}
      - {x: 1.475, y: -0.089999996}
      - {x: 1.475, y: -0.04}
      - {x: 1.4449999, y: -0.02}
      - {x: 1.365, y: -0.099999994}
      - {x: 1.355, y: 0.02}
      - {x: 1.365, y: 0.17999999}
      - {x: 1.395, y: 0.29999998}
      - {x: 1.395, y: 0.57}
      - {x: 1.375, y: 0.58}
      - {x: 1.345, y: 0.57}
      - {x: 1.265, y: 0.41}
      - {x: 1.145, y: 0.13}
      - {x: 1.125, y: 0.19}
      - {x: 1.125, y: 0.48}
      - {x: 1.095, y: 0.53}
      - {x: 1.0649999, y: 0.52}
      - {x: 1.025, y: 0.39999998}
      - {x: 0.98499995, y: 0.22}
      - {x: 0.98499995, y: 0.28}
      - {x: 1.035, y: 0.47}
      - {x: 1.0649999, y: 0.64}
      - {x: 1.0649999, y: 0.77}
      - {x: 1.045, y: 0.78999996}
      - {x: 1.015, y: 0.78}
      - {x: 0.895, y: 0.58}
      - {x: 0.78499997, y: 0.32999998}
      - {x: 0.805, y: 0.44}
      - {x: 0.825, y: 0.59999996}
      - {x: 0.815, y: 0.76}
      - {x: 0.78499997, y: 0.77}
      - {x: 0.755, y: 0.76}
      - {x: 0.685, y: 0.59}
      - {x: 0.66499996, y: 0.51}
      - {x: 0.575, y: 0.35}
      - {x: 0.525, y: 0.17999999}
      - {x: 0.525, y: 0.32}
      - {x: 0.53499997, y: 0.53}
      - {x: 0.53499997, y: 0.84999996}
      - {x: 0.49499997, y: 0.90999997}
      - {x: 0.465, y: 0.89}
      - {x: 0.385, y: 0.7}
      - {x: 0.275, y: 0.26}
      - {x: 0.275, y: 0.38}
      - {x: 0.265, y: 0.45}
      - {x: 0.24499999, y: 0.5}
      - {x: 0.21499999, y: 0.5}
      - {x: 0.175, y: 0.47}
      - {x: 0.13499999, y: 0.39}
      - {x: 0.13499999, y: 0.48}
      - {x: 0.125, y: 0.74}
      - {x: 0.105, y: 0.85999995}
      - {x: 0.105, y: 1.04}
      - {x: 0.065, y: 1.16}
      - {x: 0.024999999, y: 1.1999999}
      - {x: -0.005, y: 1.1899999}
      - {x: -0.105, y: 0.91999996}
      - {x: -0.13499999, y: 0.72999996}
      - {x: -0.185, y: 0.52}
      - {x: -0.225, y: 0.26}
      - {x: -0.255, y: 0.17}
      - {x: -0.265, y: 0.26}
      - {x: -0.315, y: 0.39}
      - {x: -0.325, y: 0.55}
      - {x: -0.39499998, y: 0.78999996}
      - {x: -0.435, y: 0.84}
      - {x: -0.465, y: 0.83}
      - {x: -0.505, y: 0.66999996}
      - {x: -0.525, y: 0.39999998}
      - {x: -0.525, y: 0.17}
      - {x: -0.555, y: 0.08}
      - {x: -0.615, y: 0.19999999}
      - {x: -0.655, y: 0.31}
      - {x: -0.705, y: 0.45999998}
      - {x: -0.78499997, y: 0.65999997}
      - {x: -0.815, y: 0.72999996}
      - {x: -0.875, y: 0.78999996}
      - {x: -0.905, y: 0.78}
      - {x: -0.905, y: 0.75}
      - {x: -0.91499996, y: 0.58}
      - {x: -0.995, y: 0.5}
      - {x: -1.005, y: 0.32999998}
      - {x: -1.035, y: 0.26}
      - {x: -1.035, y: 0.14999999}
      - {x: -1.105, y: 0.35}
      - {x: -1.165, y: 0.47}
      - {x: -1.255, y: 0.61}
      - {x: -1.285, y: 0.59999996}
      - {x: -1.295, y: 0.57}
      - {x: -1.285, y: 0.42}
      - {x: -1.245, y: 0.17}
      - {x: -1.235, y: 0.02}
      - {x: -1.2149999, y: -0.099999994}
      - {x: -1.375, y: -0.01}
      - {x: -1.4449999, y: -0.14}
      - {x: -1.745, y: -0.14}
      - {x: -2.085, y: -0.21}
      - {x: -2.085, y: -0.35999998}
      - {x: -2.075, y: -0.42}
      - {x: -2.0149999, y: -0.48999998}
      - {x: -1.925, y: -0.48999998}
      - {x: -1.775, y: -0.63}
      - {x: -1.5949999, y: -0.78}
      - {x: -1.145, y: -0.82}
      - {x: -1.045, y: -0.84999996}
      - {x: -0.825, y: -0.98999995}
      - {x: -0.745, y: -1.03}
      - {x: -0.49499997, y: -1.12}
      - {x: -0.33499998, y: -1.12}
      - {x: 0.085, y: -1.04}
      - {x: 0.125, y: -1.06}
      - {x: 0.60499996, y: -1.1999999}
      - {x: 0.72499996, y: -1.1999999}
      - {x: 0.85499996, y: -1.16}
      - {x: 1.255, y: -1.04}
      - {x: 1.635, y: -0.71}
